{
    "map_name": "LV-624",
    "map_path": "map_files/LV624",
    "map_file": "LV624.dmm",
    "survivor_types": [
        "/datum/equipment_preset/survivor/scientist/lv",
        "/datum/equipment_preset/survivor/doctor/lv",
        "/datum/equipment_preset/survivor/chaplain/lv",
        "/datum/equipment_preset/survivor/engineer/lv",
        "/datum/equipment_preset/survivor/corporate",
        "/datum/equipment_preset/survivor/trucker/lv",
        "/datum/equipment_preset/survivor/security/lv",
        "/datum/equipment_preset/survivor/pmc"
    ],
    "map_item_type": "/obj/item/map/lazarus_landing_map",
    "announce_text": "An automated distress signal has been received from archaeology site Lazarus Landing, on border world LV-624. A response team from the ###SHIPNAME### will be dispatched shortly to investigate.",
    "monkey_types": [
        "farwa",
        "monkey",
        "neaera",
        "stok"
    ],
    "environment_traits": { "Fog": true },
    "traits": [{ "Ground": true }],
    "nightmare": {
        "scenario": "maps/Nightmare/maps/LV624/scenario.json",
        "mapgen": "maps/Nightmare/maps/LV624/mapgen.json"
    },
    "xvx_hives": {
        "xeno_hive_alpha": 0,
        "xeno_hive_bravo": 0,
        "xeno_hive_charlie": 70
    }
}
